<?xml version="1.0" standalone="no"?>
<!DOCTYPE svg PUBLIC "-//W3C//DTD SVG 20010904//EN"
 "http://www.w3.org/TR/2001/REC-SVG-20010904/DTD/svg10.dtd">
<svg version="1.0" xmlns="http://www.w3.org/2000/svg"
 width="1089.000000pt" height="350.000000pt" viewBox="0 0 1089.000000 350.000000"
 preserveAspectRatio="xMidYMid meet">
<metadata>
Created by potrace 1.15, written by Peter Selinger 2001-2017
</metadata>
<g transform="translate(0.000000,350.000000) scale(0.100000,-0.100000)"
fill="#000000" stroke="none">
<path d="M1105 3485 c-147 -32 -308 -117 -413 -218 -129 -124 -223 -307 -252
-487 -11 -74 -13 -1726 -2 -1800 6 -37 11 -45 27 -43 66 8 384 0 455 -11 136
-20 369 11 417 56 l23 21 0 938 0 938 -26 20 c-38 30 -94 43 -209 50 l-100 6
-3 53 -3 53 603 -3 603 -4 95 -26 c288 -79 471 -203 553 -375 30 -64 32 -75
32 -178 0 -99 -3 -116 -28 -169 -69 -148 -239 -278 -455 -347 l-72 -23 87 -45
c137 -71 248 -187 288 -301 9 -25 31 -141 51 -260 61 -380 86 -458 156 -490
51 -23 115 -25 162 -6 68 29 124 131 135 250 l6 61 37 3 c33 3 38 0 44 -22 8
-33 -19 -152 -47 -208 -27 -55 -93 -124 -144 -151 -49 -25 -176 -26 -281 -2
-169 39 -317 149 -364 270 -22 55 -24 80 -30 310 -6 227 -8 255 -29 308 -30
76 -116 169 -195 210 l-61 32 -258 3 -257 3 2 -452 3 -453 33 -23 c38 -25 101
-39 220 -48 l82 -7 0 -49 0 -49 -292 0 c-161 0 -288 -4 -283 -8 6 -5 57 -26
115 -46 58 -21 258 -100 445 -176 384 -157 586 -226 766 -265 235 -51 535 -44
697 17 67 25 195 121 254 190 139 165 204 326 215 536 l6 112 -59 0 c-266 1
-513 207 -569 475 -20 95 -19 167 5 259 29 116 73 190 165 281 116 115 250
175 395 175 l62 0 -4 213 c-5 193 -7 220 -32 300 -84 280 -278 483 -554 578
l-97 34 -1030 2 c-823 1 -1042 -1 -1090 -12z"/>
<path d="M1765 2954 c-62 -5 -89 -19 -104 -51 -8 -16 -11 -165 -11 -473 l0
-450 233 0 c247 1 340 11 436 49 169 68 239 181 248 406 12 295 -93 446 -348
499 -74 15 -359 27 -454 20z"/>
<path d="M6313 2738 c-5 -7 -121 -339 -258 -738 -136 -399 -256 -740 -267
-758 -30 -49 -97 -83 -173 -90 l-65 -5 0 -48 0 -49 265 0 265 0 0 50 c0 50 0
50 -32 50 -55 1 -117 35 -133 74 -14 33 -12 40 42 195 l56 161 281 0 281 0 64
-185 c35 -102 61 -192 57 -200 -9 -24 -70 -45 -131 -45 l-55 0 0 -50 0 -50
330 0 330 0 0 50 0 50 -57 0 c-68 0 -123 14 -152 38 -14 12 -99 245 -281 776
-143 418 -265 765 -271 773 -14 17 -83 17 -96 1z m106 -705 c67 -194 121 -355
121 -358 0 -3 -112 -5 -248 -5 l-249 0 119 348 c140 412 128 376 132 371 3 -2
59 -163 125 -356z"/>
<path d="M9912 2737 c-9 -11 -266 -749 -485 -1391 -47 -139 -115 -196 -234
-196 l-43 0 0 -50 0 -50 265 0 265 0 0 50 c0 47 -1 50 -26 50 -72 0 -154 53
-154 99 0 9 24 87 54 172 l54 154 282 0 283 0 64 -185 c45 -128 62 -190 55
-200 -13 -22 -70 -39 -134 -39 l-58 -1 0 -50 0 -50 335 0 335 0 0 50 0 50 -62
0 c-81 0 -132 15 -156 44 -10 14 -135 363 -277 778 -142 414 -262 759 -268
766 -13 16 -82 16 -95 -1z m102 -697 c63 -184 118 -343 121 -352 7 -17 -9 -18
-244 -18 l-250 0 122 359 c67 198 125 357 129 353 4 -4 59 -158 122 -342z"/>
<path d="M4216 2498 c-4 -95 -9 -189 -12 -209 l-5 -37 -42 23 c-95 53 -279 71
-397 40 -192 -51 -344 -203 -395 -395 -19 -72 -19 -221 0 -295 48 -182 208
-342 391 -390 76 -20 222 -20 298 0 91 24 174 73 248 147 l67 67 -51 -82 c-28
-45 -73 -117 -100 -159 -41 -63 -49 -84 -46 -115 l3 -38 572 -3 573 -2 4 22
c5 25 36 542 36 596 0 31 -2 32 -39 32 l-38 0 -7 -97 c-18 -262 -100 -381
-296 -431 -66 -16 -545 -30 -539 -15 2 5 208 332 457 726 393 621 453 721 450
749 l-3 33 -561 3 -561 2 -7 -172z m852 60 c-8 -13 -165 -261 -348 -553 -183
-291 -337 -534 -342 -540 -5 -5 5 17 22 50 43 85 60 156 60 260 0 146 -45 269
-137 374 l-46 53 11 59 c23 125 85 215 180 263 41 20 70 29 177 50 11 2 114 4
229 5 l208 1 -14 -22z m-1002 -433 c76 -37 152 -114 190 -190 26 -54 29 -70
29 -160 0 -90 -3 -106 -29 -160 -38 -77 -120 -158 -193 -193 -51 -24 -70 -27
-158 -27 -88 0 -107 3 -157 27 -80 37 -152 107 -191 187 -30 61 -32 73 -32
166 0 87 3 107 26 155 48 101 130 176 232 212 80 28 205 21 283 -17z"/>
<path d="M7310 2625 l0 -45 50 0 c69 0 145 -18 175 -41 l25 -20 0 -649 c0
-357 -3 -656 -6 -665 -12 -29 -66 -48 -156 -53 l-88 -5 0 -48 0 -49 360 0 360
0 0 49 0 48 -88 5 c-53 3 -100 12 -120 22 l-32 17 0 230 0 230 121 117 c67 64
125 118 129 120 13 5 450 -656 450 -681 0 -34 -22 -49 -80 -55 l-50 -5 0 -48
0 -49 310 0 310 0 0 50 0 50 -47 0 c-72 0 -116 16 -157 58 -29 28 -439 625
-560 813 l-16 26 232 222 c260 248 311 283 447 304 l71 11 0 43 0 43 -260 0
-260 0 0 -45 c0 -36 3 -45 18 -45 9 0 32 -9 50 -20 25 -15 32 -26 32 -51 0
-36 6 -30 -365 -385 -148 -142 -294 -280 -323 -308 l-52 -51 2 385 3 385 36
18 c20 10 73 20 118 24 l81 6 0 43 0 44 -360 0 -360 0 0 -45z"/>
<path d="M6165 868 c-37 -20 -55 -51 -55 -98 0 -72 23 -93 127 -120 67 -17 87
-73 45 -122 -43 -50 -152 7 -152 78 0 9 -6 14 -12 12 -17 -6 -23 -117 -8 -132
8 -8 15 -7 24 5 10 15 15 15 36 3 33 -18 94 -18 129 0 65 34 69 159 7 199 -12
8 -45 20 -74 27 -77 18 -103 64 -62 108 43 46 122 12 136 -58 4 -16 13 -30 20
-30 11 0 14 17 14 70 0 70 -7 83 -29 56 -10 -12 -16 -12 -39 0 -32 17 -79 18
-107 2z"/>
<path d="M4110 856 c0 -7 14 -16 30 -20 l31 -6 -3 -152 -3 -153 -27 -3 c-16
-2 -28 -9 -28 -18 0 -11 18 -14 85 -14 67 0 85 3 85 14 0 8 -10 16 -22 18 -21
3 -23 9 -26 71 l-3 67 61 0 c35 0 74 6 90 15 85 44 79 143 -11 179 -53 21
-259 23 -259 2z m240 -36 c20 -20 27 -83 12 -107 -11 -17 -58 -33 -98 -33
l-34 0 0 80 0 80 50 0 c37 0 55 -5 70 -20z"/>
<path d="M6660 856 c0 -7 9 -16 20 -19 19 -5 20 -14 20 -161 0 -149 -1 -156
-20 -156 -11 0 -20 -7 -20 -15 0 -12 14 -15 65 -15 51 0 65 3 65 15 0 8 -9 15
-20 15 -19 0 -20 7 -20 175 l0 175 -45 0 c-32 0 -45 -4 -45 -14z"/>
<path d="M8220 823 c0 -27 -3 -58 -6 -70 -5 -16 -2 -23 9 -23 9 0 17 14 21 39
7 47 36 71 83 71 l34 0 -3 -157 -3 -158 -32 -3 c-21 -2 -33 -9 -33 -18 0 -11
20 -14 105 -14 85 0 105 3 105 14 0 10 -13 16 -37 18 l-38 3 0 155 0 155 33 3
c43 4 82 -21 82 -52 0 -31 10 -56 21 -56 10 0 12 63 3 109 l-6 31 -169 0 -169
0 0 -47z"/>
<path d="M9080 856 c0 -7 9 -16 20 -19 19 -5 20 -14 20 -157 0 -143 -1 -152
-20 -157 -11 -3 -20 -12 -20 -19 0 -11 16 -14 65 -14 51 0 65 3 65 15 0 8 -9
15 -20 15 -18 0 -20 7 -20 73 0 82 16 117 55 117 34 0 45 -27 45 -110 0 -63
-2 -72 -20 -77 -11 -3 -20 -12 -20 -19 0 -11 16 -14 65 -14 51 0 65 3 65 15 0
8 -9 15 -19 15 -17 0 -19 9 -23 91 -3 81 -6 93 -27 110 -28 23 -69 24 -99 3
l-22 -15 0 80 0 81 -45 0 c-32 0 -45 -4 -45 -14z"/>
<path d="M9940 856 c0 -7 9 -16 20 -19 19 -5 20 -14 20 -161 0 -149 -1 -156
-20 -156 -11 0 -20 -7 -20 -15 0 -12 14 -15 65 -15 49 0 65 3 65 14 0 7 -9 16
-20 19 -19 5 -20 14 -20 176 l0 171 -45 0 c-32 0 -45 -4 -45 -14z"/>
<path d="M5010 788 c-9 -26 -24 -47 -37 -53 -28 -12 -30 -35 -4 -35 16 0 19
-10 23 -90 5 -97 12 -113 61 -124 39 -9 77 30 77 79 0 24 -4 35 -15 35 -10 0
-15 -10 -15 -29 0 -40 -9 -61 -26 -61 -22 0 -34 44 -34 121 l0 69 40 0 c29 0
40 4 40 15 0 11 -11 15 -40 15 l-40 0 0 50 c0 28 -4 50 -8 50 -4 0 -14 -19
-22 -42z"/>
<path d="M7160 788 c-9 -26 -24 -47 -37 -53 -28 -12 -30 -35 -4 -35 16 0 19
-10 23 -90 5 -97 12 -113 61 -124 39 -9 77 30 77 79 0 24 -4 35 -15 35 -10 0
-15 -10 -15 -34 0 -19 -7 -39 -16 -47 -28 -23 -44 14 -44 103 l0 78 40 0 c29
0 40 4 40 15 0 11 -11 15 -40 15 l-40 0 0 50 c0 28 -4 50 -8 50 -4 0 -14 -19
-22 -42z"/>
<path d="M160 810 l-55 -7 50 -1 c28 -1 115 -15 195 -32 80 -16 148 -30 151
-30 4 0 24 -29 45 -65 111 -191 293 -333 506 -396 63 -19 107 -23 328 -28
l255 -7 115 -56 c264 -130 456 -188 625 -188 106 0 206 22 249 55 23 18 16 18
-55 5 -78 -15 -180 2 -339 57 -147 50 -218 84 -507 239 -367 197 -572 291
-794 362 -270 86 -546 119 -769 92z"/>
<path d="M4522 725 c-33 -24 -27 -70 8 -70 21 0 25 5 25 27 -1 19 5 30 18 34
24 8 57 -22 57 -51 0 -19 -7 -24 -47 -30 -31 -4 -55 -16 -75 -35 -46 -47 -33
-93 33 -110 32 -9 46 -8 71 5 22 10 35 12 42 5 17 -17 54 -11 70 12 20 29 21
68 1 68 -10 0 -15 -10 -15 -31 0 -20 -4 -29 -12 -27 -9 3 -14 33 -16 90 -2 70
-6 89 -22 103 -28 25 -109 31 -138 10z"/>
<path d="M4768 733 c-32 -5 -38 -33 -8 -33 25 0 32 -27 28 -110 -3 -59 -5 -65
-25 -68 -13 -2 -23 -10 -23 -18 0 -11 17 -14 75 -14 58 0 75 3 75 14 0 9 -12
16 -27 18 -27 3 -28 4 -28 69 0 85 33 154 48 99 3 -12 14 -20 26 -20 17 0 21
6 21 30 0 38 -37 51 -75 26 -22 -14 -25 -15 -25 -1 0 15 -9 16 -62 8z"/>
<path d="M5188 733 c-34 -5 -37 -30 -5 -35 21 -3 22 -7 22 -88 0 -81 -1 -85
-22 -88 -13 -2 -23 -10 -23 -18 0 -11 16 -14 70 -14 56 0 70 3 70 15 0 8 -9
15 -20 15 -18 0 -20 7 -20 73 0 83 16 117 56 117 33 0 46 -36 42 -119 -3 -60
-5 -66 -25 -69 -13 -2 -23 -10 -23 -18 0 -11 16 -14 70 -14 56 0 70 3 70 15 0
8 -8 15 -19 15 -16 0 -19 10 -23 89 -2 52 -9 96 -17 105 -28 33 -109 29 -133
-8 -5 -6 -8 -1 -8 12 0 23 -4 24 -62 15z"/>
<path d="M5518 722 c-123 -76 -26 -283 106 -228 46 19 77 76 41 76 -8 0 -15
-6 -15 -14 0 -18 -38 -46 -61 -46 -27 0 -58 32 -65 67 l-6 32 78 3 79 3 -1 39
c-3 74 -87 111 -156 68z"/>
<path d="M5723 733 c-28 -5 -30 -33 -3 -33 19 0 20 -7 20 -90 0 -83 -1 -90
-20 -90 -11 0 -20 -7 -20 -15 0 -12 14 -15 70 -15 54 0 70 3 70 14 0 8 -10 16
-22 18 -22 3 -23 8 -23 79 0 52 5 82 14 93 14 17 15 16 23 -4 11 -29 52 -24
56 7 5 31 -37 51 -73 35 -15 -7 -25 -8 -25 -2 0 10 -25 11 -67 3z"/>
<path d="M6448 723 c-42 -26 -62 -72 -56 -127 12 -106 133 -149 207 -75 35 35
45 84 29 135 -24 72 -116 106 -180 67z m112 -29 c23 -23 20 -136 -4 -163 -24
-26 -60 -27 -86 -1 -16 16 -20 33 -20 84 0 58 3 67 27 85 28 23 56 21 83 -5z"/>
<path d="M6833 733 c-28 -5 -30 -29 -3 -36 18 -5 20 -14 20 -90 0 -67 3 -87
18 -99 26 -24 73 -30 105 -14 24 13 27 13 27 -1 0 -10 6 -13 16 -9 9 3 29 6
45 6 19 0 29 5 29 15 0 8 -9 15 -20 15 -19 0 -20 7 -20 110 0 119 2 116 -59
104 -35 -7 -41 -29 -11 -37 17 -4 20 -14 20 -66 0 -72 -15 -109 -47 -117 -49
-13 -53 -3 -53 116 0 121 3 117 -67 103z"/>
<path d="M7519 717 c-66 -44 -76 -139 -19 -195 55 -56 144 -47 188 18 54 80
-3 200 -96 200 -24 0 -52 -9 -73 -23z m105 -18 c23 -18 26 -27 26 -85 0 -72
-20 -104 -64 -104 -64 0 -93 134 -41 185 29 30 45 31 79 4z"/>
<path d="M7758 733 c-32 -5 -38 -33 -8 -33 19 0 20 -7 20 -90 0 -83 -1 -90
-20 -90 -11 0 -20 -7 -20 -15 0 -12 14 -15 70 -15 54 0 70 3 70 14 0 8 -10 16
-22 18 -21 3 -23 8 -23 74 0 83 20 117 64 112 26 -3 26 -5 29 -95 3 -88 2 -93
-18 -93 -11 0 -20 -7 -20 -15 0 -12 14 -15 70 -15 54 0 70 3 70 14 0 8 -10 16
-22 18 -21 3 -23 9 -28 93 -3 50 -9 95 -13 102 -14 21 -72 26 -106 9 -27 -15
-31 -15 -31 -1 0 15 -9 16 -62 8z"/>
<path d="M8663 730 c-57 -23 -81 -126 -43 -187 24 -40 53 -56 104 -56 32 0 45
6 68 32 15 17 28 36 28 41 0 19 -21 10 -47 -20 -14 -18 -34 -30 -48 -30 -28 0
-65 43 -65 76 0 22 4 23 78 26 l77 3 -3 30 c-7 79 -73 116 -149 85z"/>
<path d="M8899 725 c-32 -17 -59 -71 -59 -117 0 -39 30 -92 61 -109 38 -20 97
-15 124 11 25 23 34 60 15 60 -5 0 -10 -4 -10 -8 0 -5 -9 -18 -20 -30 -48 -52
-110 -7 -110 80 0 55 11 83 40 98 27 14 50 2 50 -26 0 -29 24 -41 45 -24 20
17 19 36 -5 60 -24 24 -92 27 -131 5z"/>
<path d="M9398 733 c-34 -5 -37 -30 -5 -35 21 -3 22 -7 22 -88 0 -81 -1 -85
-22 -88 -13 -2 -23 -10 -23 -18 0 -11 16 -14 70 -14 56 0 70 3 70 15 0 8 -9
15 -20 15 -18 0 -20 7 -20 73 0 86 17 120 58 115 32 -4 44 -43 40 -126 -3 -50
-6 -57 -25 -60 -13 -2 -23 -10 -23 -18 0 -11 16 -14 70 -14 54 0 70 3 70 14 0
8 -10 16 -22 18 -22 3 -23 8 -26 92 -2 50 -8 96 -13 103 -19 22 -74 26 -108 9
-27 -15 -31 -15 -31 -1 0 15 -9 16 -62 8z"/>
<path d="M9741 727 c-65 -33 -89 -135 -45 -194 48 -65 155 -62 201 6 72 107
-44 246 -156 188z m94 -32 c20 -19 25 -34 25 -75 0 -74 -22 -110 -67 -110 -61
0 -89 135 -38 185 13 14 31 25 40 25 9 0 27 -11 40 -25z"/>
<path d="M10135 708 c-31 -29 -38 -42 -42 -84 -4 -40 0 -55 19 -84 44 -65 133
-74 188 -18 35 34 46 84 31 131 -17 52 -53 79 -110 85 -45 4 -52 2 -86 -30z
m122 -14 c23 -23 25 -31 21 -84 -5 -66 -27 -100 -65 -100 -43 0 -63 33 -63
104 0 58 3 67 26 85 35 27 49 26 81 -5z"/>
<path d="M10413 720 c-31 -19 -40 -39 -34 -80 10 -66 7 -137 -6 -152 -8 -9
-13 -29 -11 -44 6 -54 115 -82 193 -50 40 17 58 46 49 81 -9 37 -40 54 -119
62 -53 6 -71 12 -73 25 -3 14 3 15 36 11 77 -10 129 43 105 108 -8 21 -8 29 2
33 7 2 16 -2 19 -10 9 -24 36 -16 36 11 0 22 -4 25 -34 25 -19 0 -37 -4 -41
-10 -4 -6 -15 -6 -31 0 -37 14 -55 12 -91 -10z"/>
<path d="M10620 716 c0 -8 9 -16 21 -18 15 -2 30 -26 60 -97 21 -52 39 -100
39 -108 0 -23 -29 -72 -48 -82 -15 -8 -18 -5 -17 17 0 22 -5 27 -25 27 -31 0
-39 -29 -14 -56 23 -25 60 -24 87 3 13 13 47 83 77 157 37 93 59 135 72 139
10 2 18 11 18 18 0 10 -13 14 -45 14 -32 0 -45 -4 -45 -14 0 -8 5 -16 12 -18
8 -3 4 -24 -14 -69 l-26 -64 -26 58 c-30 67 -31 73 -11 81 35 13 11 26 -50 26
-50 0 -65 -3 -65 -14z"/>
</g>
</svg>
